dt(1ms)	ch0(mV)	ch1(mV)
0	4789	3000
1	4789	3118
2	4789	3279
3	4784	3445
4	4784	3611
5	4784	3773
6	537	3631
7	537	3455
8	537	3289
9	4794	3142
10	4789	2991
11	4789	3157
12	4784	3318
13	4784	3494
14	4784	3660
15	527	3753
16	532	3587
17	532	3416
18	4799	3274
19	4794	3103
20	4789	3025
21	4789	3191
22	4784	3362
23	4784	3528
24	4784	3704
25	532	3709
26	532	3558
27	537	3377
28	4789	3216
29	4789	3054
30	4789	3069
31	4789	3235
32	4784	3406
33	4784	3572
34	4784	3734
35	532	3675
36	532	3504
37	537	3343
38	4799	3181
39	4789	3015
40	4789	3103
41	4784	3274
42	4784	3440
43	4784	3602
44	4784	3768
45	532	3631
46	532	3470
47	537	3294
48	4789	3147
49	4789	2986
50	4789	3142
51	4784	3308
52	4784	3475
53	4784	3665
54	527	3763
55	532	3592
56	532	3421
57	4799	3274
58	4794	3108
59	4789	3005
60	4789	3186
61	4784	3357
62	4784	3514
63	4784	3675
64	527	3729
65	532	3553
66	532	3391
67	4794	3235
68	4789	3069
69	4789	3069
70	4784	3225
71	4789	3391
72	4784	3558
73	4784	3734
74	532	3685
75	532	3514
76	537	3343
77	4799	3201
78	4789	3040
79	4789	3093
80	4789	3260
81	4784	3426
82	4784	3602
83	4784	3758
84	532	3641
85	532	3475
86	537	3304
87	4794	3157
88	4789	3000
89	4789	3132
90	4784	3318
91	4784	3460
92	4784	3636
93	527	3768
94	532	3611
95	537	3440
96	4799	3289
97	4794	3123
98	4789	3005
99	4789	3172
100	4784	3343
101	4784	3509
102	4784	3675
103	532	3743
104	532	3558
105	537	3401
106	4794	3250
107	4794	3088
108	4789	3044
109	4784	3216
110	4784	3377
111	4784	3548
112	4784	3714
113	532	3690
114	532	3528
115	537	3357
116	4794	3201
117	4789	3040
118	4789	3088
119	4789	3255
120	4784	3431
121	4784	3597
122	4784	3753
123	532	3660
124	537	3475
125	537	3313
126	4794	3167
127	4789	3005
128	4789	3123
129	4789	3299
130	4784	3455
131	4784	3631
132	527	3787
133	527	3616
134	537	3455
135	537	3274
136	4794	3123
137	4789	3005
138	4784	3162
139	4784	3343
140	4784	3494
141	4784	3670
142	532	3753
143	532	3577
144	537	3401
145	4794	3264
146	4789	3103
147	4789	3040
148	4789	3211
149	4784	3367
150	4784	3548
151	4784	3695
152	532	3704
153	537	3548
154	537	3367
155	4794	3211
156	4789	3064
157	4789	3088
158	4789	3235
159	4784	3421
160	4784	3577
161	4784	3748
162	532	3665
163	537	3494
164	537	3328
165	4794	3172
166	4789	3015
167	4789	3123
168	4789	3279
169	4784	3440
170	4784	3616
171	4784	3782
172	527	3621
173	537	3455
174	537	3279
175	4794	3137
176	4789	2986
177	4789	3147
178	4784	3328
179	4784	3499
180	4784	3646
181	527	3753
182	527	3577
183	537	3421
184	4799	3264
185	4794	3103
186	4789	3030
187	4789	3196
188	4784	3367
189	4784	3533
190	4784	3695
191	527	3714
192	532	3538
193	537	3377
194	4794	3220
195	4789	3059
196	4789	3064
197	4789	3235
198	4784	3401
199	4784	3572
